<svg width="32" height="42" viewBox="0 0 32 42" fill="none" xmlns="http://www.w3.org/2000/svg">
<path opacity="0.2" d="M16 42C20.9664 42 25 41.1067 25 40C25 38.8933 20.9664 38 16 38C11.0336 38 7 38.8933 7 40C7 41.1067 11.0336 42 16 42Z" fill="#1B2A33"/>
<path d="M16 0C7.17838 0 0 7.33785 0 16.3529C0 24.1625 5.52649 29.6222 12.5232 36.532C13.6562 37.6501 14.8238 38.8032 16 40C17.1762 38.8032 18.3351 37.6501 19.4681 36.532C26.4649 29.6222 32 24.1625 32 16.3529C32 7.33785 24.8216 0 16 0Z" fill="#CF9B42"/>
<circle cx="16" cy="16" r="6" fill="white"/>
</svg>
