<svg width="4" height="7" viewBox="0 0 4 7" fill="none" xmlns="http://www.w3.org/2000/svg">
<g clip-path="url(#clip0)">
<path d="M2.00242 6.9814C1.60757 6.9814 1.28711 6.66094 1.28711 6.26609C1.28711 5.87124 1.60757 5.55078 2.00242 5.55078C2.39727 5.55078 2.71772 5.87124 2.71772 6.26609C2.71772 6.66094 2.39727 6.9814 2.00242 6.9814Z" fill="white"/>
<path d="M3.12446 3.58798C2.60944 4.14306 2.58083 4.45208 2.59227 4.83548H1.44778C1.43634 3.99428 1.45351 3.62232 2.26037 2.84979C2.58655 2.54077 2.84406 2.29471 2.80973 1.8083C2.78112 1.3505 2.39199 1.11016 2.03147 1.11016C1.62518 1.11016 1.15021 1.41345 1.15021 2.26037H0C0 0.886981 0.806867 0 2.05436 0C2.6495 0 3.16452 0.194564 3.51359 0.543634C3.83977 0.875537 4.01145 1.32761 4 1.8598C3.99428 2.65522 3.51359 3.17024 3.12446 3.58798Z" fill="white"/>
</g>
<defs>
<clipPath id="clip0">
<rect width="4" height="6.9814" fill="white"/>
</clipPath>
</defs>
</svg>
